


ARM Macro Assembler    Page 1 


    1 00000000         ;******************** (C) COPYRIGHT 2016 STMicroelectron
                       ics ********************
    2 00000000         ;* File Name          : startup_stm32f070xb.s
    3 00000000         ;* Author             : MCD Application Team
    4 00000000         ;* Description        : STM32F070x8/STM32F070xB devices 
                       vector table for MDK-ARM toolchain.
    5 00000000         ;*                      This module performs:
    6 00000000         ;*                      - Set the initial SP
    7 00000000         ;*                      - Set the initial PC == Reset_Ha
                       ndler
    8 00000000         ;*                      - Set the vector table entries w
                       ith the exceptions ISR address
    9 00000000         ;*                      - Branches to __main in the C li
                       brary (which eventually
   10 00000000         ;*                        calls main()).
   11 00000000         ;*                      After Reset the CortexM0 process
                       or is in Thread mode,
   12 00000000         ;*                      priority is Privileged, and the 
                       Stack is set to Main.
   13 00000000         ;* <<< Use Configuration Wizard in Context Menu >>>
   14 00000000         ;*******************************************************
                       ************************
   15 00000000         ;*
   16 00000000         ;* Redistribution and use in source and binary forms, wi
                       th or without modification,
   17 00000000         ;* are permitted provided that the following conditions 
                       are met:
   18 00000000         ;*   1. Redistributions of source code must retain the a
                       bove copyright notice,
   19 00000000         ;*      this list of conditions and the following discla
                       imer.
   20 00000000         ;*   2. Redistributions in binary form must reproduce th
                       e above copyright notice,
   21 00000000         ;*      this list of conditions and the following discla
                       imer in the documentation
   22 00000000         ;*      and/or other materials provided with the distrib
                       ution.
   23 00000000         ;*   3. Neither the name of STMicroelectronics nor the n
                       ames of its contributors
   24 00000000         ;*      may be used to endorse or promote products deriv
                       ed from this software
   25 00000000         ;*      without specific prior written permission.
   26 00000000         ;*
   27 00000000         ;* THIS SOFTWARE IS PROVIDED BY THE COPYRIGHT HOLDERS AN
                       D CONTRIBUTORS "AS IS"
   28 00000000         ;* AND ANY EXPRESS OR IMPLIED WARRANTIES, INCLUDING, BUT
                        NOT LIMITED TO, THE
   29 00000000         ;* IMPLIED WARRANTIES OF MERCHANTABILITY AND FITNESS FOR
                        A PARTICULAR PURPOSE ARE
   30 00000000         ;* DISCLAIMED. IN NO EVENT SHALL THE COPYRIGHT HOLDER OR
                        CONTRIBUTORS BE LIABLE
   31 00000000         ;* FOR ANY DIRECT, INDIRECT, INCIDENTAL, SPECIAL, EXEMPL
                       ARY, OR CONSEQUENTIAL
   32 00000000         ;* DAMAGES (INCLUDING, BUT NOT LIMITED TO, PROCUREMENT O
                       F SUBSTITUTE GOODS OR
   33 00000000         ;* SERVICES; LOSS OF USE, DATA, OR PROFITS; OR BUSINESS 
                       INTERRUPTION) HOWEVER
   34 00000000         ;* CAUSED AND ON ANY THEORY OF LIABILITY, WHETHER IN CON
                       TRACT, STRICT LIABILITY,



ARM Macro Assembler    Page 2 


   35 00000000         ;* OR TORT (INCLUDING NEGLIGENCE OR OTHERWISE) ARISING I
                       N ANY WAY OUT OF THE USE
   36 00000000         ;* OF THIS SOFTWARE, EVEN IF ADVISED OF THE POSSIBILITY 
                       OF SUCH DAMAGE.
   37 00000000         ;
   38 00000000         ;*******************************************************
                       ************************
   39 00000000         
   40 00000000         ; Amount of memory (in bytes) allocated for Stack
   41 00000000         ; Tailor this value to your application needs
   42 00000000         ; <h> Stack Configuration
   43 00000000         ;   <o> Stack Size (in Bytes) <0x0-0xFFFFFFFF:8>
   44 00000000         ; </h>
   45 00000000         
   46 00000000 00000600 
                       Stack_Size
                               EQU              0x600
   47 00000000         
   48 00000000                 AREA             STACK, NOINIT, READWRITE, ALIGN
=3
   49 00000000         Stack_Mem
                               SPACE            Stack_Size
   50 00000600         __initial_sp
   51 00000600         
   52 00000600         
   53 00000600         ; <h> Heap Configuration
   54 00000600         ;   <o>  Heap Size (in Bytes) <0x0-0xFFFFFFFF:8>
   55 00000600         ; </h>
   56 00000600         
   57 00000600 00000300 
                       Heap_Size
                               EQU              0x300
   58 00000600         
   59 00000600                 AREA             HEAP, NOINIT, READWRITE, ALIGN=
3
   60 00000000         __heap_base
   61 00000000         Heap_Mem
                               SPACE            Heap_Size
   62 00000300         __heap_limit
   63 00000300         
   64 00000300                 PRESERVE8
   65 00000300                 THUMB
   66 00000300         
   67 00000300         
   68 00000300         ; Vector Table Mapped to Address 0 at Reset
   69 00000300                 AREA             RESET, DATA, READONLY
   70 00000000                 EXPORT           __Vectors
   71 00000000                 EXPORT           __Vectors_End
   72 00000000                 EXPORT           __Vectors_Size
   73 00000000         
   74 00000000 00000000 
                       __Vectors
                               DCD              __initial_sp ; Top of Stack
   75 00000004 00000000        DCD              Reset_Handler ; Reset Handler
   76 00000008 00000000        DCD              NMI_Handler ; NMI Handler
   77 0000000C 00000000        DCD              HardFault_Handler ; Hard Fault 
                                                            Handler
   78 00000010 00000000        DCD              0           ; Reserved
   79 00000014 00000000        DCD              0           ; Reserved



ARM Macro Assembler    Page 3 


   80 00000018 00000000        DCD              0           ; Reserved
   81 0000001C 00000000        DCD              0           ; Reserved
   82 00000020 00000000        DCD              0           ; Reserved
   83 00000024 00000000        DCD              0           ; Reserved
   84 00000028 00000000        DCD              0           ; Reserved
   85 0000002C 00000000        DCD              SVC_Handler ; SVCall Handler
   86 00000030 00000000        DCD              0           ; Reserved
   87 00000034 00000000        DCD              0           ; Reserved
   88 00000038 00000000        DCD              PendSV_Handler ; PendSV Handler
                                                            
   89 0000003C 00000000        DCD              SysTick_Handler 
                                                            ; SysTick Handler
   90 00000040         
   91 00000040         ; External Interrupts
   92 00000040 00000000        DCD              WWDG_IRQHandler 
                                                            ; Window Watchdog
   93 00000044 00000000        DCD              0           ; Reserved
   94 00000048 00000000        DCD              RTC_IRQHandler ; RTC through EX
                                                            TI Line
   95 0000004C 00000000        DCD              FLASH_IRQHandler ; FLASH
   96 00000050 00000000        DCD              RCC_IRQHandler ; RCC
   97 00000054 00000000        DCD              EXTI0_1_IRQHandler 
                                                            ; EXTI Line 0 and 1
                                                            
   98 00000058 00000000        DCD              EXTI2_3_IRQHandler 
                                                            ; EXTI Line 2 and 3
                                                            
   99 0000005C 00000000        DCD              EXTI4_15_IRQHandler 
                                                            ; EXTI Line 4 to 15
                                                            
  100 00000060 00000000        DCD              0           ; Reserved
  101 00000064 00000000        DCD              DMA1_Channel1_IRQHandler 
                                                            ; DMA1 Channel 1
  102 00000068 00000000        DCD              DMA1_Channel2_3_IRQHandler ; DM
                                                            A1 Channel 2 and Ch
                                                            annel 3
  103 0000006C 00000000        DCD              DMA1_Channel4_5_IRQHandler ; DM
                                                            A1 Channel 4 and Ch
                                                            annel 5
  104 00000070 00000000        DCD              ADC1_IRQHandler ; ADC1 
  105 00000074 00000000        DCD              TIM1_BRK_UP_TRG_COM_IRQHandler 
                                                            ; TIM1 Break, Updat
                                                            e, Trigger and Comm
                                                            utation
  106 00000078 00000000        DCD              TIM1_CC_IRQHandler ; TIM1 Captu
                                                            re Compare
  107 0000007C 00000000        DCD              0           ; Reserved
  108 00000080 00000000        DCD              TIM3_IRQHandler ; TIM3
  109 00000084 00000000        DCD              TIM6_IRQHandler ; TIM6
  110 00000088 00000000        DCD              TIM7_IRQHandler ; TIM7
  111 0000008C 00000000        DCD              TIM14_IRQHandler ; TIM14
  112 00000090 00000000        DCD              TIM15_IRQHandler ; TIM15
  113 00000094 00000000        DCD              TIM16_IRQHandler ; TIM16
  114 00000098 00000000        DCD              TIM17_IRQHandler ; TIM17
  115 0000009C 00000000        DCD              I2C1_IRQHandler ; I2C1
  116 000000A0 00000000        DCD              I2C2_IRQHandler ; I2C2
  117 000000A4 00000000        DCD              SPI1_IRQHandler ; SPI1
  118 000000A8 00000000        DCD              SPI2_IRQHandler ; SPI2
  119 000000AC 00000000        DCD              USART1_IRQHandler ; USART1



ARM Macro Assembler    Page 4 


  120 000000B0 00000000        DCD              USART2_IRQHandler ; USART2
  121 000000B4 00000000        DCD              USART3_4_IRQHandler 
                                                            ; USART3 & USART4
  122 000000B8 00000000        DCD              0           ; Reserved
  123 000000BC 00000000        DCD              USB_IRQHandler ; USB
  124 000000C0         
  125 000000C0         __Vectors_End
  126 000000C0         
  127 000000C0 000000C0 
                       __Vectors_Size
                               EQU              __Vectors_End - __Vectors
  128 000000C0         
  129 000000C0                 AREA             |.text|, CODE, READONLY
  130 00000000         
  131 00000000         ; Reset handler routine
  132 00000000         Reset_Handler
                               PROC
  133 00000000                 EXPORT           Reset_Handler                 [
WEAK]
  134 00000000                 IMPORT           __main
  135 00000000                 IMPORT           SystemInit
  136 00000000 4804            LDR              R0, =SystemInit
  137 00000002 4780            BLX              R0
  138 00000004 4804            LDR              R0, =__main
  139 00000006 4700            BX               R0
  140 00000008                 ENDP
  141 00000008         
  142 00000008         ; Dummy Exception Handlers (infinite loops which can be 
                       modified)
  143 00000008         
  144 00000008         NMI_Handler
                               PROC
  145 00000008                 EXPORT           NMI_Handler                    
[WEAK]
  146 00000008 E7FE            B                .
  147 0000000A                 ENDP
  149 0000000A         HardFault_Handler
                               PROC
  150 0000000A                 EXPORT           HardFault_Handler              
[WEAK]
  151 0000000A E7FE            B                .
  152 0000000C                 ENDP
  153 0000000C         SVC_Handler
                               PROC
  154 0000000C                 EXPORT           SVC_Handler                    
[WEAK]
  155 0000000C E7FE            B                .
  156 0000000E                 ENDP
  157 0000000E         PendSV_Handler
                               PROC
  158 0000000E                 EXPORT           PendSV_Handler                 
[WEAK]
  159 0000000E E7FE            B                .
  160 00000010                 ENDP
  161 00000010         SysTick_Handler
                               PROC
  162 00000010                 EXPORT           SysTick_Handler                
[WEAK]
  163 00000010 E7FE            B                .



ARM Macro Assembler    Page 5 


  164 00000012                 ENDP
  165 00000012         
  166 00000012         Default_Handler
                               PROC
  167 00000012         
  168 00000012                 EXPORT           WWDG_IRQHandler                
[WEAK]
  169 00000012                 EXPORT           RTC_IRQHandler                 
[WEAK]
  170 00000012                 EXPORT           FLASH_IRQHandler               
[WEAK]
  171 00000012                 EXPORT           RCC_IRQHandler                 
[WEAK]
  172 00000012                 EXPORT           EXTI0_1_IRQHandler             
[WEAK]
  173 00000012                 EXPORT           EXTI2_3_IRQHandler             
[WEAK]
  174 00000012                 EXPORT           EXTI4_15_IRQHandler            
[WEAK]
  175 00000012                 EXPORT           DMA1_Channel1_IRQHandler       
[WEAK]
  176 00000012                 EXPORT           DMA1_Channel2_3_IRQHandler     
[WEAK]
  177 00000012                 EXPORT           DMA1_Channel4_5_IRQHandler     
[WEAK]
  178 00000012                 EXPORT           ADC1_IRQHandler                
[WEAK]
  179 00000012                 EXPORT           TIM1_BRK_UP_TRG_COM_IRQHandler 
[WEAK]
  180 00000012                 EXPORT           TIM1_CC_IRQHandler             
[WEAK]
  181 00000012                 EXPORT           TIM3_IRQHandler                
[WEAK]
  182 00000012                 EXPORT           TIM6_IRQHandler                
[WEAK]
  183 00000012                 EXPORT           TIM7_IRQHandler                
[WEAK]
  184 00000012                 EXPORT           TIM14_IRQHandler               
[WEAK]
  185 00000012                 EXPORT           TIM15_IRQHandler               
[WEAK]
  186 00000012                 EXPORT           TIM16_IRQHandler               
[WEAK]
  187 00000012                 EXPORT           TIM17_IRQHandler               
[WEAK]
  188 00000012                 EXPORT           I2C1_IRQHandler                
[WEAK]
  189 00000012                 EXPORT           I2C2_IRQHandler                
[WEAK]
  190 00000012                 EXPORT           SPI1_IRQHandler                
[WEAK]
  191 00000012                 EXPORT           SPI2_IRQHandler                
[WEAK]
  192 00000012                 EXPORT           USART1_IRQHandler              
[WEAK]
  193 00000012                 EXPORT           USART2_IRQHandler              
[WEAK]
  194 00000012                 EXPORT           USART3_4_IRQHandler            
[WEAK]



ARM Macro Assembler    Page 6 


  195 00000012                 EXPORT           USB_IRQHandler                 
[WEAK]
  196 00000012         
  197 00000012         
  198 00000012         WWDG_IRQHandler
  199 00000012         RTC_IRQHandler
  200 00000012         FLASH_IRQHandler
  201 00000012         RCC_IRQHandler
  202 00000012         EXTI0_1_IRQHandler
  203 00000012         EXTI2_3_IRQHandler
  204 00000012         EXTI4_15_IRQHandler
  205 00000012         DMA1_Channel1_IRQHandler
  206 00000012         DMA1_Channel2_3_IRQHandler
  207 00000012         DMA1_Channel4_5_IRQHandler
  208 00000012         ADC1_IRQHandler
  209 00000012         TIM1_BRK_UP_TRG_COM_IRQHandler
  210 00000012         TIM1_CC_IRQHandler
  211 00000012         TIM3_IRQHandler
  212 00000012         TIM6_IRQHandler
  213 00000012         TIM7_IRQHandler
  214 00000012         TIM14_IRQHandler
  215 00000012         TIM15_IRQHandler
  216 00000012         TIM16_IRQHandler
  217 00000012         TIM17_IRQHandler
  218 00000012         I2C1_IRQHandler
  219 00000012         I2C2_IRQHandler
  220 00000012         SPI1_IRQHandler
  221 00000012         SPI2_IRQHandler
  222 00000012         USART1_IRQHandler
  223 00000012         USART2_IRQHandler
  224 00000012         USART3_4_IRQHandler
  225 00000012         USB_IRQHandler
  226 00000012         
  227 00000012 E7FE            B                .
  228 00000014         
  229 00000014                 ENDP
  230 00000014         
  231 00000014                 ALIGN
  232 00000014         
  233 00000014         ;*******************************************************
                       ************************
  234 00000014         ; User Stack and Heap initialization
  235 00000014         ;*******************************************************
                       ************************
  236 00000014                 IF               :DEF:__MICROLIB
  237 00000014         
  238 00000014                 EXPORT           __initial_sp
  239 00000014                 EXPORT           __heap_base
  240 00000014                 EXPORT           __heap_limit
  241 00000014         
  242 00000014                 ELSE
  257                          ENDIF
  258 00000014         
  259 00000014                 END
              00000000 
              00000000 
Command Line: --debug --xref --diag_suppress=9931 --cpu=Cortex-M0 --apcs=interw
ork --depend=..\out\startup_stm32f070xb.d -o..\out\startup_stm32f070xb.o -I.\RT
E\_DATA-COLLECTOR -IC:\Keil_v5\ARM\PACK\ARM\CMSIS\5.2.0\CMSIS\Include -IC:\Keil



ARM Macro Assembler    Page 7 


_v5\ARM\PACK\Keil\STM32F0xx_DFP\1.5.0\Device\Include --predefine="__MICROLIB SE
TA 1" --predefine="__UVISION_VERSION SETA 523" --predefine="_RTE_ SETA 1" --pre
define="STM32F070xB SETA 1" --list=startup_stm32f070xb.lst startup_stm32f070xb.
s



ARM Macro Assembler    Page 1 Alphabetic symbol ordering
Relocatable symbols

STACK 00000000

Symbol: STACK
   Definitions
      At line 48 in file startup_stm32f070xb.s
   Uses
      None
Comment: STACK unused
Stack_Mem 00000000

Symbol: Stack_Mem
   Definitions
      At line 49 in file startup_stm32f070xb.s
   Uses
      None
Comment: Stack_Mem unused
__initial_sp 00000600

Symbol: __initial_sp
   Definitions
      At line 50 in file startup_stm32f070xb.s
   Uses
      At line 74 in file startup_stm32f070xb.s
      At line 238 in file startup_stm32f070xb.s

3 symbols



ARM Macro Assembler    Page 1 Alphabetic symbol ordering
Relocatable symbols

HEAP 00000000

Symbol: HEAP
   Definitions
      At line 59 in file startup_stm32f070xb.s
   Uses
      None
Comment: HEAP unused
Heap_Mem 00000000

Symbol: Heap_Mem
   Definitions
      At line 61 in file startup_stm32f070xb.s
   Uses
      None
Comment: Heap_Mem unused
__heap_base 00000000

Symbol: __heap_base
   Definitions
      At line 60 in file startup_stm32f070xb.s
   Uses
      At line 239 in file startup_stm32f070xb.s
Comment: __heap_base used once
__heap_limit 00000300

Symbol: __heap_limit
   Definitions
      At line 62 in file startup_stm32f070xb.s
   Uses
      At line 240 in file startup_stm32f070xb.s
Comment: __heap_limit used once
4 symbols



ARM Macro Assembler    Page 1 Alphabetic symbol ordering
Relocatable symbols

RESET 00000000

Symbol: RESET
   Definitions
      At line 69 in file startup_stm32f070xb.s
   Uses
      None
Comment: RESET unused
__Vectors 00000000

Symbol: __Vectors
   Definitions
      At line 74 in file startup_stm32f070xb.s
   Uses
      At line 70 in file startup_stm32f070xb.s
      At line 127 in file startup_stm32f070xb.s

__Vectors_End 000000C0

Symbol: __Vectors_End
   Definitions
      At line 125 in file startup_stm32f070xb.s
   Uses
      At line 71 in file startup_stm32f070xb.s
      At line 127 in file startup_stm32f070xb.s

3 symbols



ARM Macro Assembler    Page 1 Alphabetic symbol ordering
Relocatable symbols

.text 00000000

Symbol: .text
   Definitions
      At line 129 in file startup_stm32f070xb.s
   Uses
      None
Comment: .text unused
ADC1_IRQHandler 00000012

Symbol: ADC1_IRQHandler
   Definitions
      At line 208 in file startup_stm32f070xb.s
   Uses
      At line 104 in file startup_stm32f070xb.s
      At line 178 in file startup_stm32f070xb.s

DMA1_Channel1_IRQHandler 00000012

Symbol: DMA1_Channel1_IRQHandler
   Definitions
      At line 205 in file startup_stm32f070xb.s
   Uses
      At line 101 in file startup_stm32f070xb.s
      At line 175 in file startup_stm32f070xb.s

DMA1_Channel2_3_IRQHandler 00000012

Symbol: DMA1_Channel2_3_IRQHandler
   Definitions
      At line 206 in file startup_stm32f070xb.s
   Uses
      At line 102 in file startup_stm32f070xb.s
      At line 176 in file startup_stm32f070xb.s

DMA1_Channel4_5_IRQHandler 00000012

Symbol: DMA1_Channel4_5_IRQHandler
   Definitions
      At line 207 in file startup_stm32f070xb.s
   Uses
      At line 103 in file startup_stm32f070xb.s
      At line 177 in file startup_stm32f070xb.s

Default_Handler 00000012

Symbol: Default_Handler
   Definitions
      At line 166 in file startup_stm32f070xb.s
   Uses
      None
Comment: Default_Handler unused
EXTI0_1_IRQHandler 00000012

Symbol: EXTI0_1_IRQHandler
   Definitions
      At line 202 in file startup_stm32f070xb.s
   Uses
      At line 97 in file startup_stm32f070xb.s



ARM Macro Assembler    Page 2 Alphabetic symbol ordering
Relocatable symbols

      At line 172 in file startup_stm32f070xb.s

EXTI2_3_IRQHandler 00000012

Symbol: EXTI2_3_IRQHandler
   Definitions
      At line 203 in file startup_stm32f070xb.s
   Uses
      At line 98 in file startup_stm32f070xb.s
      At line 173 in file startup_stm32f070xb.s

EXTI4_15_IRQHandler 00000012

Symbol: EXTI4_15_IRQHandler
   Definitions
      At line 204 in file startup_stm32f070xb.s
   Uses
      At line 99 in file startup_stm32f070xb.s
      At line 174 in file startup_stm32f070xb.s

FLASH_IRQHandler 00000012

Symbol: FLASH_IRQHandler
   Definitions
      At line 200 in file startup_stm32f070xb.s
   Uses
      At line 95 in file startup_stm32f070xb.s
      At line 170 in file startup_stm32f070xb.s

HardFault_Handler 0000000A

Symbol: HardFault_Handler
   Definitions
      At line 149 in file startup_stm32f070xb.s
   Uses
      At line 77 in file startup_stm32f070xb.s
      At line 150 in file startup_stm32f070xb.s

I2C1_IRQHandler 00000012

Symbol: I2C1_IRQHandler
   Definitions
      At line 218 in file startup_stm32f070xb.s
   Uses
      At line 115 in file startup_stm32f070xb.s
      At line 188 in file startup_stm32f070xb.s

I2C2_IRQHandler 00000012

Symbol: I2C2_IRQHandler
   Definitions
      At line 219 in file startup_stm32f070xb.s
   Uses
      At line 116 in file startup_stm32f070xb.s
      At line 189 in file startup_stm32f070xb.s

NMI_Handler 00000008

Symbol: NMI_Handler



ARM Macro Assembler    Page 3 Alphabetic symbol ordering
Relocatable symbols

   Definitions
      At line 144 in file startup_stm32f070xb.s
   Uses
      At line 76 in file startup_stm32f070xb.s
      At line 145 in file startup_stm32f070xb.s

PendSV_Handler 0000000E

Symbol: PendSV_Handler
   Definitions
      At line 157 in file startup_stm32f070xb.s
   Uses
      At line 88 in file startup_stm32f070xb.s
      At line 158 in file startup_stm32f070xb.s

RCC_IRQHandler 00000012

Symbol: RCC_IRQHandler
   Definitions
      At line 201 in file startup_stm32f070xb.s
   Uses
      At line 96 in file startup_stm32f070xb.s
      At line 171 in file startup_stm32f070xb.s

RTC_IRQHandler 00000012

Symbol: RTC_IRQHandler
   Definitions
      At line 199 in file startup_stm32f070xb.s
   Uses
      At line 94 in file startup_stm32f070xb.s
      At line 169 in file startup_stm32f070xb.s

Reset_Handler 00000000

Symbol: Reset_Handler
   Definitions
      At line 132 in file startup_stm32f070xb.s
   Uses
      At line 75 in file startup_stm32f070xb.s
      At line 133 in file startup_stm32f070xb.s

SPI1_IRQHandler 00000012

Symbol: SPI1_IRQHandler
   Definitions
      At line 220 in file startup_stm32f070xb.s
   Uses
      At line 117 in file startup_stm32f070xb.s
      At line 190 in file startup_stm32f070xb.s

SPI2_IRQHandler 00000012

Symbol: SPI2_IRQHandler
   Definitions
      At line 221 in file startup_stm32f070xb.s
   Uses
      At line 118 in file startup_stm32f070xb.s
      At line 191 in file startup_stm32f070xb.s



ARM Macro Assembler    Page 4 Alphabetic symbol ordering
Relocatable symbols


SVC_Handler 0000000C

Symbol: SVC_Handler
   Definitions
      At line 153 in file startup_stm32f070xb.s
   Uses
      At line 85 in file startup_stm32f070xb.s
      At line 154 in file startup_stm32f070xb.s

SysTick_Handler 00000010

Symbol: SysTick_Handler
   Definitions
      At line 161 in file startup_stm32f070xb.s
   Uses
      At line 89 in file startup_stm32f070xb.s
      At line 162 in file startup_stm32f070xb.s

TIM14_IRQHandler 00000012

Symbol: TIM14_IRQHandler
   Definitions
      At line 214 in file startup_stm32f070xb.s
   Uses
      At line 111 in file startup_stm32f070xb.s
      At line 184 in file startup_stm32f070xb.s

TIM15_IRQHandler 00000012

Symbol: TIM15_IRQHandler
   Definitions
      At line 215 in file startup_stm32f070xb.s
   Uses
      At line 112 in file startup_stm32f070xb.s
      At line 185 in file startup_stm32f070xb.s

TIM16_IRQHandler 00000012

Symbol: TIM16_IRQHandler
   Definitions
      At line 216 in file startup_stm32f070xb.s
   Uses
      At line 113 in file startup_stm32f070xb.s
      At line 186 in file startup_stm32f070xb.s

TIM17_IRQHandler 00000012

Symbol: TIM17_IRQHandler
   Definitions
      At line 217 in file startup_stm32f070xb.s
   Uses
      At line 114 in file startup_stm32f070xb.s
      At line 187 in file startup_stm32f070xb.s

TIM1_BRK_UP_TRG_COM_IRQHandler 00000012

Symbol: TIM1_BRK_UP_TRG_COM_IRQHandler
   Definitions



ARM Macro Assembler    Page 5 Alphabetic symbol ordering
Relocatable symbols

      At line 209 in file startup_stm32f070xb.s
   Uses
      At line 105 in file startup_stm32f070xb.s
      At line 179 in file startup_stm32f070xb.s

TIM1_CC_IRQHandler 00000012

Symbol: TIM1_CC_IRQHandler
   Definitions
      At line 210 in file startup_stm32f070xb.s
   Uses
      At line 106 in file startup_stm32f070xb.s
      At line 180 in file startup_stm32f070xb.s

TIM3_IRQHandler 00000012

Symbol: TIM3_IRQHandler
   Definitions
      At line 211 in file startup_stm32f070xb.s
   Uses
      At line 108 in file startup_stm32f070xb.s
      At line 181 in file startup_stm32f070xb.s

TIM6_IRQHandler 00000012

Symbol: TIM6_IRQHandler
   Definitions
      At line 212 in file startup_stm32f070xb.s
   Uses
      At line 109 in file startup_stm32f070xb.s
      At line 182 in file startup_stm32f070xb.s

TIM7_IRQHandler 00000012

Symbol: TIM7_IRQHandler
   Definitions
      At line 213 in file startup_stm32f070xb.s
   Uses
      At line 110 in file startup_stm32f070xb.s
      At line 183 in file startup_stm32f070xb.s

USART1_IRQHandler 00000012

Symbol: USART1_IRQHandler
   Definitions
      At line 222 in file startup_stm32f070xb.s
   Uses
      At line 119 in file startup_stm32f070xb.s
      At line 192 in file startup_stm32f070xb.s

USART2_IRQHandler 00000012

Symbol: USART2_IRQHandler
   Definitions
      At line 223 in file startup_stm32f070xb.s
   Uses
      At line 120 in file startup_stm32f070xb.s
      At line 193 in file startup_stm32f070xb.s




ARM Macro Assembler    Page 6 Alphabetic symbol ordering
Relocatable symbols

USART3_4_IRQHandler 00000012

Symbol: USART3_4_IRQHandler
   Definitions
      At line 224 in file startup_stm32f070xb.s
   Uses
      At line 121 in file startup_stm32f070xb.s
      At line 194 in file startup_stm32f070xb.s

USB_IRQHandler 00000012

Symbol: USB_IRQHandler
   Definitions
      At line 225 in file startup_stm32f070xb.s
   Uses
      At line 123 in file startup_stm32f070xb.s
      At line 195 in file startup_stm32f070xb.s

WWDG_IRQHandler 00000012

Symbol: WWDG_IRQHandler
   Definitions
      At line 198 in file startup_stm32f070xb.s
   Uses
      At line 92 in file startup_stm32f070xb.s
      At line 168 in file startup_stm32f070xb.s

36 symbols



ARM Macro Assembler    Page 1 Alphabetic symbol ordering
Absolute symbols

Heap_Size 00000300

Symbol: Heap_Size
   Definitions
      At line 57 in file startup_stm32f070xb.s
   Uses
      At line 61 in file startup_stm32f070xb.s
Comment: Heap_Size used once
Stack_Size 00000600

Symbol: Stack_Size
   Definitions
      At line 46 in file startup_stm32f070xb.s
   Uses
      At line 49 in file startup_stm32f070xb.s
Comment: Stack_Size used once
__Vectors_Size 000000C0

Symbol: __Vectors_Size
   Definitions
      At line 127 in file startup_stm32f070xb.s
   Uses
      At line 72 in file startup_stm32f070xb.s
Comment: __Vectors_Size used once
3 symbols



ARM Macro Assembler    Page 1 Alphabetic symbol ordering
External symbols

SystemInit 00000000

Symbol: SystemInit
   Definitions
      At line 135 in file startup_stm32f070xb.s
   Uses
      At line 136 in file startup_stm32f070xb.s
Comment: SystemInit used once
__main 00000000

Symbol: __main
   Definitions
      At line 134 in file startup_stm32f070xb.s
   Uses
      At line 138 in file startup_stm32f070xb.s
Comment: __main used once
2 symbols
387 symbols in table
